{
    "cordova-plugin-whitelist": {
        "source": {
            "type": "registry",
            "id": "cordova-plugin-whitelist@1"
        },
        "is_top_level": true,
        "variables": {}
    },
    "phonegap-plugin-barcodescanner": {
        "source": {
            "type": "registry",
            "id": "phonegap-plugin-barcodescanner"
        },
        "is_top_level": true,
        "variables": {
            "CAMERA_USAGE_DESCRIPTION": " "
        }
    },
    "cordova-plugin-compat": {
        "source": {
            "type": "registry",
            "id": "cordova-plugin-compat"
        },
        "is_top_level": false,
        "variables": {}
    }
}